<?xml version="1.0" encoding="UTF-8"?>
<svg width="41px" height="20px" viewBox="0 0 41 20" version="1.1" xmlns="http://www.w3.org/2000/svg" xmlns:xlink="http://www.w3.org/1999/xlink">
    <!-- Generator: Sketch 60 (88103) - https://sketch.com -->
    <title>Combined Shape</title>
    <desc>Created with Sketch.</desc>
    <g id="Desktop" stroke="none" stroke-width="1" fill="none" fill-rule="evenodd">
        <g id="Homepage" transform="translate(-172.000000, -2995.000000)" fill="#1B75BC">
            <path d="M202.905401,2995 L211.521238,3003.54822 L211.526463,3003.54304 L213,3005.00501 L202.925954,3015 L201.452417,3013.53803 L209,3006.049 L172,3006.04923 L172,3003.98139 L209.01,3003.981 L201.431864,2996.46232 L202.905401,2995 Z" id="Combined-Shape"></path>
        </g>
    </g>
</svg>